
EVENT   3
 PAGE   1
  250(bytes(0x04,0x08,0x6f,0x3a,0x0c,0x52,0x50,0x47,0x3a,0x3a,0x53,0x45,0x08,0x3a,0x0a,0x40,0x6e,0x61,0x6d,0x65,0x49,0x22,0x09,0x4d,0x6f,0x76,0x65,0x06,0x3a,0x06,0x45,0x54,0x3a,0x0b,0x40,0x70,0x69,0x74,0x63,0x68,0x69,0x69,0x3a,0x0c,0x40,0x76,0x6f,0x6c,0x75,0x6d,0x65,0x69,0x55))
  TeleportPlayer(0,140,3,11,0,0)
  0()



EVENT   4
 PAGE   1
  250(bytes(0x04,0x08,0x6f,0x3a,0x0c,0x52,0x50,0x47,0x3a,0x3a,0x53,0x45,0x08,0x3a,0x0a,0x40,0x6e,0x61,0x6d,0x65,0x49,0x22,0x09,0x4d,0x6f,0x76,0x65,0x06,0x3a,0x06,0x45,0x54,0x3a,0x0b,0x40,0x70,0x69,0x74,0x63,0x68,0x69,0x69,0x3a,0x0c,0x40,0x76,0x6f,0x6c,0x75,0x6d,0x65,0x69,0x55))
  TeleportPlayer(0,140,4,11,0,0)
  0()



EVENT   5
 PAGE   1
  250(bytes(0x04,0x08,0x6f,0x3a,0x0c,0x52,0x50,0x47,0x3a,0x3a,0x53,0x45,0x08,0x3a,0x0a,0x40,0x6e,0x61,0x6d,0x65,0x49,0x22,0x09,0x4d,0x6f,0x76,0x65,0x06,0x3a,0x06,0x45,0x54,0x3a,0x0b,0x40,0x70,0x69,0x74,0x63,0x68,0x69,0x69,0x3a,0x0c,0x40,0x76,0x6f,0x6c,0x75,0x6d,0x65,0x69,0x55))
  TeleportPlayer(0,140,3,37,0,0)
  0()



EVENT   6
 PAGE   1
  250(bytes(0x04,0x08,0x6f,0x3a,0x0c,0x52,0x50,0x47,0x3a,0x3a,0x53,0x45,0x08,0x3a,0x0a,0x40,0x6e,0x61,0x6d,0x65,0x49,0x22,0x09,0x4d,0x6f,0x76,0x65,0x06,0x3a,0x06,0x45,0x54,0x3a,0x0b,0x40,0x70,0x69,0x74,0x63,0x68,0x69,0x69,0x3a,0x0c,0x40,0x76,0x6f,0x6c,0x75,0x6d,0x65,0x69,0x55))
  TeleportPlayer(0,140,4,37,0,0)
  0()



EVENT   7
 PAGE   1
  281(1)
  250(bytes(0x04,0x08,0x6f,0x3a,0x0c,0x52,0x50,0x47,0x3a,0x3a,0x53,0x45,0x08,0x3a,0x0a,0x40,0x6e,0x61,0x6d,0x65,0x49,0x22,0x09,0x4d,0x6f,0x76,0x65,0x06,0x3a,0x06,0x45,0x54,0x3a,0x0b,0x40,0x70,0x69,0x74,0x63,0x68,0x69,0x69,0x3a,0x0c,0x40,0x76,0x6f,0x6c,0x75,0x6d,0x65,0x69,0x55))
  TeleportPlayer(0,139,22,31,0,0)
  0()



EVENT   8
 PAGE   1
  281(1)
  250(bytes(0x04,0x08,0x6f,0x3a,0x0c,0x52,0x50,0x47,0x3a,0x3a,0x53,0x45,0x08,0x3a,0x0a,0x40,0x6e,0x61,0x6d,0x65,0x49,0x22,0x09,0x4d,0x6f,0x76,0x65,0x06,0x3a,0x06,0x45,0x54,0x3a,0x0b,0x40,0x70,0x69,0x74,0x63,0x68,0x69,0x69,0x3a,0x0c,0x40,0x76,0x6f,0x6c,0x75,0x6d,0x65,0x69,0x55))
  TeleportPlayer(0,139,34,14,0,0)
  0()



EVENT   9
 PAGE   1
  281(1)
  250(bytes(0x04,0x08,0x6f,0x3a,0x0c,0x52,0x50,0x47,0x3a,0x3a,0x53,0x45,0x08,0x3a,0x0a,0x40,0x6e,0x61,0x6d,0x65,0x49,0x22,0x09,0x4d,0x6f,0x76,0x65,0x06,0x3a,0x06,0x45,0x54,0x3a,0x0b,0x40,0x70,0x69,0x74,0x63,0x68,0x69,0x69,0x3a,0x0c,0x40,0x76,0x6f,0x6c,0x75,0x6d,0x65,0x69,0x55))
  TeleportPlayer(0,139,33,25,0,0)
  0()



EVENT   10
 PAGE   1
  281(1)
  250(bytes(0x04,0x08,0x6f,0x3a,0x0c,0x52,0x50,0x47,0x3a,0x3a,0x53,0x45,0x08,0x3a,0x0a,0x40,0x6e,0x61,0x6d,0x65,0x49,0x22,0x09,0x4d,0x6f,0x76,0x65,0x06,0x3a,0x06,0x45,0x54,0x3a,0x0b,0x40,0x70,0x69,0x74,0x63,0x68,0x69,0x69,0x3a,0x0c,0x40,0x76,0x6f,0x6c,0x75,0x6d,0x65,0x69,0x55))
  TeleportPlayer(0,139,12,33,0,0)
  0()



EVENT   1
 PAGE   1
  If(1,1001,0,12,2)
   ShowMessageFace("",0,0,2,1)
   ShowMessage("\\n<Male Weapon Vendor>Oh, welcome to the \"World Merchant\"! We might be running low on inventory on account of the storm, but this store has been in my family for generations, and we ain't going down any time soon.")
   0()
  EndIf()
  If(1,1001,0,13,1)
   ShowMessageFace("",0,0,2,2)
   ShowMessage("\\n<Male Weapon Vendor>Welcome to the \"World Merchant\"! This store has been passed down my family line for generations!")
   0()
  EndIf()
  Shop(1,6,0,0,false)
  605(1,58,0,0)
  605(1,193,0,0)
  605(1,209,0,0)
  605(1,365,0,0)
  605(1,402,0,0)
  605(1,441,0,0)
  605(1,476,0,0)
  605(1,556,0,0)
  605(1,661,0,0)
  0()



EVENT   2
 PAGE   1
  ShowMessageFace("",0,0,2,1)
  ShowMessage("\\n<Female Armor Vendor>Welcome to the \"World Merchant\"! Feel free to examine our wide selection of armor.")
  Shop(2,20,0,0,false)
  605(2,56,0,0)
  605(2,123,0,0)
  605(2,148,0,0)
  605(2,183,0,0)
  605(2,193,0,0)
  605(2,234,0,0)
  605(2,274,0,0)
  605(2,280,0,0)
  0()



EVENT   15
 PAGE   1
  ShowMessageFace("",0,0,2,1)
  ShowMessage("\\n<Youth>I saw a kitsune on the outskirts of town. I was really surprised, I wasn't even that far away from town. I step out of the city limit for a bit and bam, it's just there.")
  If(0,4,0)
   ShowMessageFace("alice_fc5",0,0,2,2)
   ShowMessage("\\n<Alice>All foxes should just end up in a hot pot.")
   ShowMessageFace("ruka_fc1",0,0,2,3)
   ShowMessage("\\n<Luka>Alice, do you hate kitsunes?")
   ShowMessageFace("alice_fc5",3,0,2,4)
   ShowMessage("\\n<Alice>Yeah. Only a bit though.")
   ShowMessageFace("ruka_fc1",0,0,2,5)
   ShowMessage("\\n<Luka>......")
   0()
  EndIf()
  0()



EVENT   16
 PAGE   1
  ShowMessageFace("",0,0,2,1)
  ShowMessage("\\n<City Girl>Captain Selene, she was one of the most legendary, I mean, infamous pirates ever. She ruled over hundreds of violent men with an iron fist like she ruled over the seas.")
  ShowMessageFace("",0,0,2,2)
  ShowMessage("\\n<City Girl>However, apparently news of her pirate ship just stopped one day. She was in the middle of her journey and any traces of her vanished. Most say a storm or monsters got her.")
  ShowMessageFace("",0,0,2,3)
  ShowMessage("\\n<City Girl>Her last voyage is shrouded in mystery. Apparently she was looking for some special treasure or something. Some say she went missing because she found the treasure, cursed treasure and all that.")
  ShowMessageFace("",0,0,2,4)
  ShowMessage("\\n<City Girl>I'm not obsessed with pirates or anything. I just kinda think the stories are cool.")
  ShowMessageFace("",0,0,2,5)
  ShowMessage("\\n<Facing Young Man>You clearly aren't obsessed. You are just a walking encyclopedia of everything pirate.")
  355("actor_label_jump")
  EndEventProcessing()
  DefineLabel("118")
  ShowMessageFace("meia_fc1",2,0,2,6)
  ShowMessage("\\n<Meia>Well, it certainly is interesting♪.")
  EndEventProcessing()
  DefineLabel("144")
  ShowMessageFace("saboresu_fc1",0,0,2,7)
  ShowMessage("\\n<Sunny>I want to become a pirate tooo♪.")
  EndEventProcessing()
  0()



EVENT   17
 PAGE   1
  ShowMessageFace("",0,0,2,1)
  ShowMessage("Books about pirates are lined up next to one another.")
  0()



EVENT   18
 PAGE   1
  ShowMessageFace("",0,0,2,1)
  ShowMessage("\\n<Traveling Warrior>The monsters in this area are the strongest in the entire Ilias Continent. We're the farthest away from the temple, so it's to be expected.")
  ShowMessageFace("",0,0,2,2)
  ShowMessage("\\n<Traveling Warrior>And as you go North, monsters get stronger and stronger. As you would expect with this logic, the Monster Lord's castle should be at the northern most point, and it is. It's on Helgondo.")
  355("actor_label_jump")
  EndEventProcessing()
  DefineLabel("93")
  ShowMessageFace("liot_fc1",1,0,2,3)
  ShowMessage("\\n<Riot>Fufu, my body is itching for a fight.")
  EndEventProcessing()
  DefineLabel("95")
  ShowMessageFace("delh_a_fc1",0,0,2,4)
  ShowMessage("\\n<Lona>Stronger monsters are better for training.")
  EndEventProcessing()
  0()



EVENT   19
 PAGE   1
  If(1,1001,0,12,2)
   ShowMessageFace("",0,0,2,1)
   ShowMessage("\\n<Traveling Elf>With ships not leaving, I'm stuck here for the time being. I don't know what monster would be inconsiderate enough to to stop a trading lane, but she clearly lacks any common decency.")
   ShowMessageFace("",0,0,2,2)
   ShowMessage("\\n<Traveling Elf>Still, a storm strong enough to sink ships, she must be a very strong monster.")
   0()
  EndIf()
  If(1,1001,0,13,1)
   ShowMessageFace("",0,0,2,3)
   ShowMessage("\\n<Traveling Elf>To get rid of a succubus strong enough to sink ships, there are some amazing adventures out there.")
   If(0,4,0)
    ShowMessageFace("alice_fc5",0,0,2,4)
    ShowMessage("\\n<Alice>It's not like we defeated her, that angel must have scared her off.")
    EndEventProcessing()
    0()
   EndIf()
   If(0,5,0)
    ShowMessageFace("iriasu_fc4",2,0,2,5)
    ShowMessage("\\n<Ilias>It's not like we defeated her, that strange angel must have forced the foul succubus to flee with her tail between her legs.")
    EndEventProcessing()
    0()
   EndIf()
   0()
  EndIf()
  0()



EVENT   20
 PAGE   1
  If(1,1001,0,12,2)
   ShowMessageFace("",0,0,2,1)
   ShowMessage("\\n<Old Swordsman>Good grief, this is some bad news. Apparently a sailor who survived his ship sinking saw a succubus controlling the storm.")
   ShowMessageFace("",0,0,2,2)
   ShowMessage("\\n<Old Swordsman>Even for me, fighting a succubus that powerful would be near impossible. Still, why is she even doing this?")
   If(0,4,0)
    ShowMessageFace("alice_fc5",3,0,2,3)
    ShowMessage("\\n<Alice>A storm strong enough to sink a ships. Alma Elma, what are you doing?")
    0()
   EndIf()
   If(0,5,0)
    ShowMessageFace("iriasu_fc4",2,0,2,4)
    ShowMessage("\\n<Ilias>A storm strong enough to sink a ship, you say. The only suspect would be the Monster Lord's obscene lackey, Alma Elma.")
    0()
   EndIf()
   0()
  EndIf()
  If(1,1001,0,13,1)
   ShowMessageFace("",0,0,2,5)
   ShowMessage("\\n<Old Swordsman>Finally, the storm has passed. I can finally go to the Sentora continent.")
   0()
  EndIf()
  0()



EVENT   12
 PAGE   1
  ShowMessageFace("",0,0,2,1)
  ShowMessage("\\n<Youth>Oh, welcome to the \"World Merchant\"! The store has been in the family for generations, and I'm next in line to inherit it. For right now, leave synthesis to me.")
  355("call_synthesize(7)")
  0()



EVENT   21
 PAGE   1
  ShowMessageFace("",0,0,2,1)
  ShowMessage("\\n<Soldier Customer>The blacksmith here is young but very skilled. From what I've heard, he was an apprentice to kitsune smith from Yamatai, and that's where he learned to make amror and weapons with the earth attribute.")
  0()



EVENT   13
 PAGE   1
  ShowMessageFace("",0,0,2,1)
  ShowMessage("\\n<Shopkeeper>Welcome, although our stock are beginning to run low.")
  Shop(0,1,0,0,false)
  605(0,11,0,0)
  605(0,13,0,0)
  605(0,14,0,0)
  605(0,15,0,0)
  605(0,17,0,0)
  605(0,23,0,0)
  605(0,35,0,0)
  605(0,101,0,0)
  If(1,1005,0,11,0)
   If(0,2065,0)
    If(4,66,0)
     ShowMessageFace("vgirl_fc1",0,0,2,2)
     ShowMessage("\\n<Vanilla>Nice to meet you, I am Vanilla, a fellow merchant. I'm interested in finding a shuriken supplier.")
     ShowMessageFace("",0,0,2,3)
     ShowMessage("\\n<Shopkeeper>Ah, our shurikens? Unfortunately, we have an exclusive contract with an artisan from Yamatai.")
     ShowMessageFace("",0,0,2,4)
     ShowMessage("\\n<Shopkeeper>Because of this exclusivity, I cannot introduce you, and since our shurikens are handmade, we usually go through all our inventory with no surplus.")
     ShowMessageFace("vgirl_fc1",0,0,2,5)
     ShowMessage("\\n<Vanilla>I see, this is regretfuL. Well in any case, thank you for your time!")
     ShowMessageFace("vgirl_fc1",0,0,2,6)
     ShowMessage("\\n<Vanilla>An artisan from Yamatai, do we know any people like that?")
     ShowMessageFace("ruka_fc1",0,0,2,7)
     ShowMessage("\\n<Luka>I remember seeing a samurai from Yamatai in Ilias Temple. He was in the room with all the job tutorials.")
     ShowMessageFace("vgirl_fc1",0,0,2,8)
     ShowMessage("\\n<Vanilla>Can we go?! Can we?!")
     ChangeSwitch(2064,2064,0)
     EndEventProcessing()
     0()
    EndIf()
    0()
   EndIf()
   0()
  EndIf()
  If(2,"A",1)
   ChangeSelfSwitch("A",0)
   ShowMessageFace("",0,0,2,9)
   ShowMessage("\\n<Shopkeeper>As you know, the storm is blocking trade, do my inventory has been hit hard.")
   If(0,6,0)
    ShowMessageFace("sonia_fc1",0,0,2,10)
    ShowMessage("\\n<Sonya>Really? The other shops seemed to have decent stocks.")
    0()
   Else()
    ShowMessageFace("ruka_fc1",0,0,2,11)
    ShowMessage("\\n<Luka>Really? The other shops seem to be doing fine.")
    0()
   EndIf()
   ShowMessageFace("",0,0,2,12)
   ShowMessage("\\n<Shopkeeper>We used to have much more than this. Heck before this, our shop was the best shop on the entire Ilias Continent.")
   ShowMessageFace("",0,0,2,13)
   ShowMessage("\\n<Shopkeeper>The last time I was in Port Natalia was atleast a year ago. I miss the Mermaid Pub so much. I wonder how that mermaid Mana is doing...")
   205(14,bytes(0x04,0x08,0x6f,0x3a,0x13,0x52,0x50,0x47,0x3a,0x3a,0x4d,0x6f,0x76,0x65,0x52,0x6f,0x75,0x74,0x65,0x09,0x3a,0x0c,0x40,0x72,0x65,0x70,0x65,0x61,0x74,0x46,0x3a,0x0f,0x40,0x73,0x6b,0x69,0x70,0x70,0x61,0x62,0x6c,0x65,0x46,0x3a,0x0a,0x40,0x77,0x61,0x69,0x74,0x54,0x3a,0x0a,0x40,0x6c,0x69,0x73,0x74,0x5b,0x07,0x6f,0x3a,0x15,0x52,0x50,0x47,0x3a,0x3a,0x4d,0x6f,0x76,0x65,0x43,0x6f,0x6d,0x6d,0x61,0x6e,0x64,0x07,0x3a,0x0a,0x40,0x63,0x6f,0x64,0x65,0x69,0x15,0x3a,0x10,0x40,0x70,0x61,0x72,0x61,0x6d,0x65,0x74,0x65,0x72,0x73,0x5b,0x00,0x6f,0x3b,0x0a,0x07,0x3b,0x0b,0x69,0x00,0x3b,0x0c,0x5b,0x00))
   ShowMessageFace("",0,0,2,14)
   ShowMessage("\\n<Shopkeeper's Wife>Please, keep going. I want to hear all about this Mana.")
   205(0,bytes(0x04,0x08,0x6f,0x3a,0x13,0x52,0x50,0x47,0x3a,0x3a,0x4d,0x6f,0x76,0x65,0x52,0x6f,0x75,0x74,0x65,0x09,0x3a,0x0c,0x40,0x72,0x65,0x70,0x65,0x61,0x74,0x46,0x3a,0x0f,0x40,0x73,0x6b,0x69,0x70,0x70,0x61,0x62,0x6c,0x65,0x46,0x3a,0x0a,0x40,0x77,0x61,0x69,0x74,0x54,0x3a,0x0a,0x40,0x6c,0x69,0x73,0x74,0x5b,0x07,0x6f,0x3a,0x15,0x52,0x50,0x47,0x3a,0x3a,0x4d,0x6f,0x76,0x65,0x43,0x6f,0x6d,0x6d,0x61,0x6e,0x64,0x07,0x3a,0x0a,0x40,0x63,0x6f,0x64,0x65,0x69,0x18,0x3a,0x10,0x40,0x70,0x61,0x72,0x61,0x6d,0x65,0x74,0x65,0x72,0x73,0x5b,0x00,0x6f,0x3b,0x0a,0x07,0x3b,0x0b,0x69,0x00,0x3b,0x0c,0x5b,0x00))
   ShowMessageFace("",0,0,2,15)
   ShowMessage("\\n<Shopkeeper>I-I... Uhhhh well I-I...")
   221()
   250(bytes(0x04,0x08,0x6f,0x3a,0x0c,0x52,0x50,0x47,0x3a,0x3a,0x53,0x45,0x08,0x3a,0x0a,0x40,0x6e,0x61,0x6d,0x65,0x49,0x22,0x0c,0x44,0x61,0x6d,0x61,0x67,0x65,0x32,0x06,0x3a,0x06,0x45,0x54,0x3a,0x0b,0x40,0x70,0x69,0x74,0x63,0x68,0x69,0x69,0x3a,0x0c,0x40,0x76,0x6f,0x6c,0x75,0x6d,0x65,0x69,0x55))
   ShowMessageFace("",0,0,2,16)
   ShowMessage("\\n<Shopkeeper>Gyaaaaaaaa...!!")
   205(14,bytes(0x04,0x08,0x6f,0x3a,0x13,0x52,0x50,0x47,0x3a,0x3a,0x4d,0x6f,0x76,0x65,0x52,0x6f,0x75,0x74,0x65,0x09,0x3a,0x0c,0x40,0x72,0x65,0x70,0x65,0x61,0x74,0x46,0x3a,0x0f,0x40,0x73,0x6b,0x69,0x70,0x70,0x61,0x62,0x6c,0x65,0x46,0x3a,0x0a,0x40,0x77,0x61,0x69,0x74,0x46,0x3a,0x0a,0x40,0x6c,0x69,0x73,0x74,0x5b,0x07,0x6f,0x3a,0x15,0x52,0x50,0x47,0x3a,0x3a,0x4d,0x6f,0x76,0x65,0x43,0x6f,0x6d,0x6d,0x61,0x6e,0x64,0x07,0x3a,0x0a,0x40,0x63,0x6f,0x64,0x65,0x69,0x16,0x3a,0x10,0x40,0x70,0x61,0x72,0x61,0x6d,0x65,0x74,0x65,0x72,0x73,0x5b,0x00,0x6f,0x3b,0x0a,0x07,0x3b,0x0b,0x69,0x00,0x3b,0x0c,0x5b,0x00))
   205(0,bytes(0x04,0x08,0x6f,0x3a,0x13,0x52,0x50,0x47,0x3a,0x3a,0x4d,0x6f,0x76,0x65,0x52,0x6f,0x75,0x74,0x65,0x09,0x3a,0x0c,0x40,0x72,0x65,0x70,0x65,0x61,0x74,0x46,0x3a,0x0f,0x40,0x73,0x6b,0x69,0x70,0x70,0x61,0x62,0x6c,0x65,0x46,0x3a,0x0a,0x40,0x77,0x61,0x69,0x74,0x46,0x3a,0x0a,0x40,0x6c,0x69,0x73,0x74,0x5b,0x07,0x6f,0x3a,0x15,0x52,0x50,0x47,0x3a,0x3a,0x4d,0x6f,0x76,0x65,0x43,0x6f,0x6d,0x6d,0x61,0x6e,0x64,0x07,0x3a,0x0a,0x40,0x63,0x6f,0x64,0x65,0x69,0x16,0x3a,0x10,0x40,0x70,0x61,0x72,0x61,0x6d,0x65,0x74,0x65,0x72,0x73,0x5b,0x00,0x6f,0x3b,0x0a,0x07,0x3b,0x0b,0x69,0x00,0x3b,0x0c,0x5b,0x00))
   Wait(30)
   222()
   0()
  EndIf()
  0()



EVENT   14
 PAGE   1
  If(1,1001,0,12,2)
   ShowMessageFace("",0,0,2,1)
   ShowMessage("\\n<Shopkeeper's Wife>The ships aren't sailing, but we have a good choice of accessories. Since accessories are expensive and thieves can steal them from wild monster girls, we don't go through a lot of our inventory.")
   0()
  EndIf()
  If(1,1001,0,13,1)
   ShowMessageFace("",0,0,2,2)
   ShowMessage("\\n<Shopkeeper's Wife>Welcome, we have great accessories!")
   0()
  EndIf()
  Shop(2,1054,0,0,false)
  605(2,1723,0,0)
  605(2,1725,0,0)
  605(2,1730,0,0)
  605(2,1732,0,0)
  605(2,1733,0,0)
  605(2,1735,0,0)
  0()



EVENT   22
 PAGE   1
  ShowMessageFace("",0,0,2,1)
  ShowMessage("\\n<Innkeeper>The price is 10G, are you going to stay?\\$")
  ShowChoices(strings("Yes","No"),2)
  IfPlayerPicksChoice(0,null)
   If(7,10,0)
    125(1,0,10)
    221()
    249(bytes(0x04,0x08,0x6f,0x3a,0x0c,0x52,0x50,0x47,0x3a,0x3a,0x4d,0x45,0x08,0x3a,0x0a,0x40,0x6e,0x61,0x6d,0x65,0x49,0x22,0x08,0x49,0x6e,0x6e,0x06,0x3a,0x06,0x45,0x54,0x3a,0x0b,0x40,0x70,0x69,0x74,0x63,0x68,0x69,0x69,0x3a,0x0c,0x40,0x76,0x6f,0x6c,0x75,0x6d,0x65,0x69,0x69))
    Wait(150)
    314(0,0)
    222()
    0()
   Else()
    ShowMessageFace("",0,0,2,2)
    ShowMessage("\\n<Innkeeper>Oh my, you don't have enough money...")
    0()
   EndIf()
   0()
  IfPlayerPicksChoice(1,null)
   0()
  404()
  0()



EVENT   26
 PAGE   1
  ShowMessageFace("",0,0,2,1)
  ShowMessage("Magic Sciences Laboratory")
  0()



EVENT   27
 PAGE   1
  0()



EVENT   28
 PAGE   1
  250(bytes(0x04,0x08,0x6f,0x3a,0x0c,0x52,0x50,0x47,0x3a,0x3a,0x53,0x45,0x08,0x3a,0x0a,0x40,0x6e,0x61,0x6d,0x65,0x49,0x22,0x09,0x4d,0x6f,0x76,0x65,0x06,0x3a,0x06,0x45,0x54,0x3a,0x0b,0x40,0x70,0x69,0x74,0x63,0x68,0x69,0x69,0x3a,0x0c,0x40,0x76,0x6f,0x6c,0x75,0x6d,0x65,0x69,0x55))
  TeleportPlayer(0,140,68,32,0,0)
  0()



EVENT   29
 PAGE   1
  250(bytes(0x04,0x08,0x6f,0x3a,0x0c,0x52,0x50,0x47,0x3a,0x3a,0x53,0x45,0x08,0x3a,0x0a,0x40,0x6e,0x61,0x6d,0x65,0x49,0x22,0x09,0x4d,0x6f,0x76,0x65,0x06,0x3a,0x06,0x45,0x54,0x3a,0x0b,0x40,0x70,0x69,0x74,0x63,0x68,0x69,0x69,0x3a,0x0c,0x40,0x76,0x6f,0x6c,0x75,0x6d,0x65,0x69,0x55))
  TeleportPlayer(0,140,69,32,0,0)
  0()



EVENT   30
 PAGE   1
  250(bytes(0x04,0x08,0x6f,0x3a,0x0c,0x52,0x50,0x47,0x3a,0x3a,0x53,0x45,0x08,0x3a,0x0a,0x40,0x6e,0x61,0x6d,0x65,0x49,0x22,0x09,0x4d,0x6f,0x76,0x65,0x06,0x3a,0x06,0x45,0x54,0x3a,0x0b,0x40,0x70,0x69,0x74,0x63,0x68,0x69,0x69,0x3a,0x0c,0x40,0x76,0x6f,0x6c,0x75,0x6d,0x65,0x69,0x55))
  TeleportPlayer(0,140,70,32,0,0)
  0()



EVENT   31
 PAGE   1
  ShowMessageFace("",0,0,2,1)
  ShowMessage("Archives and Warehouse")
  0()



EVENT   33
 PAGE   1
  ShowMessageFace("",0,0,2,1)
  ShowMessage("Meteorology and Geology Laboratory")
  0()



EVENT   34
 PAGE   1
  ShowMessageFace("",0,0,2,1)
  ShowMessage("Medical Laboratory")
  0()



EVENT   35
 PAGE   1
  250(bytes(0x04,0x08,0x6f,0x3a,0x0c,0x52,0x50,0x47,0x3a,0x3a,0x53,0x45,0x08,0x3a,0x0a,0x40,0x6e,0x61,0x6d,0x65,0x49,0x22,0x09,0x4d,0x6f,0x76,0x65,0x06,0x3a,0x06,0x45,0x54,0x3a,0x0b,0x40,0x70,0x69,0x74,0x63,0x68,0x69,0x69,0x3a,0x0c,0x40,0x76,0x6f,0x6c,0x75,0x6d,0x65,0x69,0x55))
  TeleportPlayer(0,140,68,62,0,0)
  0()



EVENT   36
 PAGE   1
  250(bytes(0x04,0x08,0x6f,0x3a,0x0c,0x52,0x50,0x47,0x3a,0x3a,0x53,0x45,0x08,0x3a,0x0a,0x40,0x6e,0x61,0x6d,0x65,0x49,0x22,0x09,0x4d,0x6f,0x76,0x65,0x06,0x3a,0x06,0x45,0x54,0x3a,0x0b,0x40,0x70,0x69,0x74,0x63,0x68,0x69,0x69,0x3a,0x0c,0x40,0x76,0x6f,0x6c,0x75,0x6d,0x65,0x69,0x55))
  TeleportPlayer(0,140,69,62,0,0)
  0()



EVENT   37
 PAGE   1
  250(bytes(0x04,0x08,0x6f,0x3a,0x0c,0x52,0x50,0x47,0x3a,0x3a,0x53,0x45,0x08,0x3a,0x0a,0x40,0x6e,0x61,0x6d,0x65,0x49,0x22,0x09,0x4d,0x6f,0x76,0x65,0x06,0x3a,0x06,0x45,0x54,0x3a,0x0b,0x40,0x70,0x69,0x74,0x63,0x68,0x69,0x69,0x3a,0x0c,0x40,0x76,0x6f,0x6c,0x75,0x6d,0x65,0x69,0x55))
  TeleportPlayer(0,140,70,62,0,0)
  0()



EVENT   39
 PAGE   1
  250(bytes(0x04,0x08,0x6f,0x3a,0x0c,0x52,0x50,0x47,0x3a,0x3a,0x53,0x45,0x08,0x3a,0x0a,0x40,0x6e,0x61,0x6d,0x65,0x49,0x22,0x09,0x4d,0x6f,0x76,0x65,0x06,0x3a,0x06,0x45,0x54,0x3a,0x0b,0x40,0x70,0x69,0x74,0x63,0x68,0x69,0x69,0x3a,0x0c,0x40,0x76,0x6f,0x6c,0x75,0x6d,0x65,0x69,0x55))
  TeleportPlayer(0,140,69,5,0,0)
  0()



EVENT   40
 PAGE   1
  250(bytes(0x04,0x08,0x6f,0x3a,0x0c,0x52,0x50,0x47,0x3a,0x3a,0x53,0x45,0x08,0x3a,0x0a,0x40,0x6e,0x61,0x6d,0x65,0x49,0x22,0x09,0x4d,0x6f,0x76,0x65,0x06,0x3a,0x06,0x45,0x54,0x3a,0x0b,0x40,0x70,0x69,0x74,0x63,0x68,0x69,0x69,0x3a,0x0c,0x40,0x76,0x6f,0x6c,0x75,0x6d,0x65,0x69,0x55))
  TeleportPlayer(0,140,70,5,0,0)
  0()



EVENT   42
 PAGE   1
  ShowMessageFace("",0,0,2,1)
  ShowMessage("Biological Laboratory")
  0()



EVENT   43
 PAGE   1
  281(1)
  250(bytes(0x04,0x08,0x6f,0x3a,0x0c,0x52,0x50,0x47,0x3a,0x3a,0x53,0x45,0x08,0x3a,0x0a,0x40,0x6e,0x61,0x6d,0x65,0x49,0x22,0x09,0x4d,0x6f,0x76,0x65,0x06,0x3a,0x06,0x45,0x54,0x3a,0x0b,0x40,0x70,0x69,0x74,0x63,0x68,0x69,0x69,0x3a,0x0c,0x40,0x76,0x6f,0x6c,0x75,0x6d,0x65,0x69,0x55))
  TeleportPlayer(0,140,69,33,0,0)
  0()



EVENT   11
 PAGE   1
  281(1)
  250(bytes(0x04,0x08,0x6f,0x3a,0x0c,0x52,0x50,0x47,0x3a,0x3a,0x53,0x45,0x08,0x3a,0x0a,0x40,0x6e,0x61,0x6d,0x65,0x49,0x22,0x09,0x4d,0x6f,0x76,0x65,0x06,0x3a,0x06,0x45,0x54,0x3a,0x0b,0x40,0x70,0x69,0x74,0x63,0x68,0x69,0x69,0x3a,0x0c,0x40,0x76,0x6f,0x6c,0x75,0x6d,0x65,0x69,0x55))
  TeleportPlayer(0,139,34,38,0,0)
  0()



EVENT   41
 PAGE   1
  281(1)
  250(bytes(0x04,0x08,0x6f,0x3a,0x0c,0x52,0x50,0x47,0x3a,0x3a,0x53,0x45,0x08,0x3a,0x0a,0x40,0x6e,0x61,0x6d,0x65,0x49,0x22,0x09,0x4d,0x6f,0x76,0x65,0x06,0x3a,0x06,0x45,0x54,0x3a,0x0b,0x40,0x70,0x69,0x74,0x63,0x68,0x69,0x69,0x3a,0x0c,0x40,0x76,0x6f,0x6c,0x75,0x6d,0x65,0x69,0x55))
  TeleportPlayer(0,140,69,33,0,0)
  0()



EVENT   44
 PAGE   1
  281(1)
  250(bytes(0x04,0x08,0x6f,0x3a,0x0c,0x52,0x50,0x47,0x3a,0x3a,0x53,0x45,0x08,0x3a,0x0a,0x40,0x6e,0x61,0x6d,0x65,0x49,0x22,0x09,0x4d,0x6f,0x76,0x65,0x06,0x3a,0x06,0x45,0x54,0x3a,0x0b,0x40,0x70,0x69,0x74,0x63,0x68,0x69,0x69,0x3a,0x0c,0x40,0x76,0x6f,0x6c,0x75,0x6d,0x65,0x69,0x55))
  TeleportPlayer(0,140,69,33,0,0)
  0()



EVENT   23
 PAGE   1
  ShowMessageFace("",0,0,2,1)
  ShowMessage("\\n<Medical Scientist>This is troubling, the Elficilin stockpile is running out. It's an important supplement to the medicine we give our patients.")
  ShowMessageFace("",0,0,2,2)
  ShowMessage("\\n<Medical Scientist>You guys are adventurers, right? If you happen to find some Elficilin, would you give it to me?")
  ShowChoices(strings("Yes","No"),2)
  IfPlayerPicksChoice(0,null)
   If(8,512)
    ShowMessageFace("",0,0,2,3)
    ShowMessage("\\n<Medical Scientist>Ohh, you'll give it to me?! Thank you very much!")
    ChangeInventory_Item(512,1,0,1)
    ShowMessageFace("",0,0,2,4)
    ShowMessage("Luka gave the Elficilin to the Medical Scientist!")
    ShowMessageFace("",0,0,2,5)
    ShowMessage("\\n<Medical Scientist>Give me a moment, I'll grant you a university permit. With this you should be able to go to the upper floors.")
    ShowMessageFace("",0,0,2,6)
    ShowMessage("\\n<Medical Scientist>If you need something then please, Just ask me. I'll do my best to assist you however I can.")
    ChangeSwitch(2063,2063,0)
    EndEventProcessing()
    0()
   Else()
    ShowMessageFace("",0,0,2,7)
    ShowMessage("\\n<Medical Scientist>Is that so, thank you, that would be a great help. An elven healer should be able to mix Elficilin.")
    ShowMessageFace("",0,0,2,8)
    ShowMessage("\\n<Medical Scientist>Speaking of which, I heard there's a hidden village of elves beyond the Lost Forest. How about you try visiting them.")
    ShowMessageFace("",0,0,2,9)
    ShowMessage("\\n<Medical Scientist>I can't give you much as thanks, but if you get it for me, I'll give you a permit for entering the university.")
    ShowMessageFace("",0,0,2,10)
    ShowMessage("\\n<Medical Scientist>Please, if you could.")
    EndEventProcessing()
    0()
   EndIf()
   0()
  IfPlayerPicksChoice(1,null)
   ShowMessageFace("",0,0,2,11)
   ShowMessage("\\n<Medical Scientist>It's a medicine that's only used to supplement treatments done by medical researchers. It's of no use to you or the general public, so you can't sell it either.")
   ShowMessageFace("",0,0,2,12)
   ShowMessage("\\n<Medical Scientist>I can't give you much as thanks, but if you get it for me, I'll give you a permit for entering the university.")
   ShowMessageFace("",0,0,2,13)
   ShowMessage("\\n<Medical Scientist>Please, I really need this.")
   EndEventProcessing()
   0()
  404()
  0()
 PAGE   2
  // condition: switch 2063 is ON
  ShowMessageFace("",0,0,2,1)
  ShowMessage("\\n<Medical Scientist>If you need something then please, just ask me. I'll do whatever I can do to help.")
  0()



EVENT   47
 PAGE   1
  If(2,"A",1)
   ShowMessageFace("",0,0,2,1)
   ShowMessage("\\n<Machina Scholar>We recently finished testing two machina. Unfortunately, both of them were weapons.")
   ShowMessageFace("",0,0,2,2)
   ShowMessage("\\n<Machina Scholar>Our university is a place of research. We don't want to store munitions here.")
   ShowMessageFace("",0,0,2,3)
   ShowMessage("\\n<Machina Scholar>However, destroying technology we have no means to safely destroy nor replicate seems... ill advised.")
   ShowChoices(strings("Give them to me","Not interested"),2)
   IfPlayerPicksChoice(0,null)
    If(8,613)
     ShowMessageFace("",0,0,2,4)
     ShowMessage("\\n<Machina Scholar>I see. You seem to have the qualifications for using makina. I'll leave it with you guys then.")
     ChangeSelfSwitch("A",0)
     250(bytes(0x04,0x08,0x6f,0x3a,0x0c,0x52,0x50,0x47,0x3a,0x3a,0x53,0x45,0x08,0x3a,0x0a,0x40,0x6e,0x61,0x6d,0x65,0x49,0x22,0x0a,0x49,0x74,0x65,0x6d,0x31,0x06,0x3a,0x06,0x45,0x54,0x3a,0x0b,0x40,0x70,0x69,0x74,0x63,0x68,0x69,0x69,0x3a,0x0c,0x40,0x76,0x6f,0x6c,0x75,0x6d,0x65,0x69,0x55))
     ChangeInventory_Item(706,0,0,1)
     ChangeInventory_Item(707,0,0,1)
     ShowMessageFace("",0,0,2,5)
     ShowMessage("\\n<Machina Scholar>I hope it's of use to you. Be careful when handling them, okay?")
     EndEventProcessing()
     0()
    Else()
     ShowMessageFace("",0,0,2,6)
     ShowMessage("\\n<Machina Scholar>No way, I can't just give weapons we barely understand to passing travelers. However, it's another thing if you come with a license for handling makina.")
     EndEventProcessing()
     0()
    EndIf()
    0()
   IfPlayerPicksChoice(1,null)
    EndEventProcessing()
    0()
   404()
   0()
  Else()
   ShowMessageFace("",0,0,2,7)
   ShowMessage("\\n<Machina Scholar>I hope it's of use to you. Be careful when handling it, okay?")
   EndEventProcessing()
   0()
  EndIf()
  0()



EVENT   48
 PAGE   1
  ShowMessageFace("",0,0,2,1)
  ShowMessage("\\n<Biologist>The bio element is associated with poison and confusion is associated with the sonic element. There aren't many monsters who use these elements, but you should be wary of those that can.")
  ShowMessageFace("",0,0,2,2)
  ShowMessage("\\n<Biologist>Zombies use the bio element and mermaids use the sonic element for example. Those two races are skilled with these elements.")
  0()



EVENT   49
 PAGE   1
  ShowMessageFace("",0,0,2,1)
  ShowMessage("\\n<Biologist>In the world, there are places where mimics frequently appear. Like any place uninhabited by normal humans with treasure chests.")
  0()



EVENT   50
 PAGE   1
  ShowMessageFace("",0,0,2,1)
  ShowMessage("\\n<Fairy Scholar>Fairies have strong magic, yet physically weak due to their small size. However, there are documents saying that a advanced species of fairies called earth fairies pride themselves on great strength despite being so small.")
  ShowMessageFace("",0,0,2,2)
  ShowMessage("\\n<Fairy Scholar>When you fight against such fairies, you need to change tactics. Of course, I'm more of indoors person myself, so I don't really have a chance to meet one.")
  355("actor_label_jump")
  EndEventProcessing()
  DefineLabel("137")
  ShowMessageFace("braunys_fc1",6,0,2,3)
  ShowMessage("\\n<Love & Lamb>Then how about we have contest of strength here?")
  ShowMessageFace("",0,0,2,4)
  ShowMessage("\\n<Fairy Scholar>Ekkkk! No! Please! I-I'm weak and prone to injury!")
  EndEventProcessing()
  0()



EVENT   51
 PAGE   1
  ShowMessageFace("",0,0,2,1)
  ShowMessage("\\n<Traveling Warrior>When you master Warrior and Martial Artist classes, you change into the Battle Master class. Apparently it uses a mix of sword and fist skills, allowing you to acquire multi weapon attack skills.")
  355("actor_label_jump")
  EndEventProcessing()
  DefineLabel("68")
  ShowMessageFace("dragonp_fc1",0,0,2,2)
  ShowMessage("\\n<Papi>Sword and fist skills! Thats so coooool!")
  EndEventProcessing()
  0()



EVENT   52
 PAGE   1
  ShowMessageFace("",0,0,2,1)
  ShowMessage("\\n<Guard>I heard that succubi excel at wind element, but are weak to the earth element.")
  ShowMessageFace("",0,0,2,2)
  ShowMessage("\\n<Guard>Ahh, I want to try fighting against a succubus. No, no, it's for training, of course.")
  355("actor_label_jump")
  EndEventProcessing()
  DefineLabel("5")
  ShowMessageFace("alice_fc5",0,0,2,3)
  ShowMessage("\\n<Alice>...pervert.")
  EndEventProcessing()
  DefineLabel("56")
  ShowMessageFace("inp_fc1",0,0,2,4)
  ShowMessage("\\n<Rami>If you're fine with an imp, then I'll fight yooou♪.")
  EndEventProcessing()
  DefineLabel("143")
  ShowMessageFace("eva_fc1",0,0,2,5)
  ShowMessage("\\n<Eva>If you want to give me semen, then I don't mind taking you on, I think?")
  EndEventProcessing()
  0()



EVENT   53
 PAGE   1
  ShowMessageFace("",0,0,2,1)
  ShowMessage("\\n<Thief>Thief's \"Escape\" allows you to escape from normal monsters with one hundred percent probability. It's a great help to have someone who has mastered it in the party, just in case.")
  355("actor_label_jump")
  EndEventProcessing()
  DefineLabel("82")
  ShowMessageFace("suzume_fc1",0,0,2,2)
  ShowMessage("\\n<Chirp>To someone as timid as me, it's basically a requirement.")
  EndEventProcessing()
  DefineLabel("93")
  ShowMessageFace("liot_fc1",0,0,2,3)
  ShowMessage("\\n<Riot>Hmph. As if I'd run away from a fight.")
  EndEventProcessing()
  0()



EVENT   54
 PAGE   1
  ShowMessageFace("",0,0,2,1)
  ShowMessage("\\n<Lecturer>After mastering the Magician class, it splits into two classes, the Black Mage and the Time Mage.")
  ShowMessageFace("",0,0,2,2)
  ShowMessage("\\n<Lecturer>Black Mage is just a better Magician. Time Mage on the other hand, learns unique magic called Time Magic.")
  ShowMessageFace("",0,0,2,3)
  ShowMessage("\\n<Lecturer>You should note that there's a Magician-type class called Summoner, but you need a job change item for it.")
  0()



EVENT   55
 PAGE   1
  ShowMessageFace("",0,0,2,1)
  ShowMessage("\\n<Anthropologist>I've heard of people mastering the \"Human\" race, but I've never heard of a higher race of the \"Human\" type.")
  ShowMessageFace("",0,0,2,2)
  ShowMessage("\\n<Anthropologist>Well, that's natural. After all, there's no higher race for humans.")
  0()



EVENT   56
 PAGE   1
  ShowMessageFace("",0,0,2,1)
  ShowMessage("\\n<Priest>I mastered the Priest class, what should I do next? Become a White Mage and learn even more powerful White Magic?")
  ShowMessageFace("",0,0,2,2)
  ShowMessage("\\n<Priest>Or maybe become a Magician and aim to become a Sage. Aa-aah Goddess, please show me the way.")
  355("actor_label_jump")
  EndEventProcessing()
  DefineLabel("525")
  If(4,525,2,44)
   ShowMessageFace("sonia_fc1",0,0,2,3)
   ShowMessage("\\n<Sonya>It's about time I thought of my promotion as well. Do I become a better healer as a White Mage, or become a Magician to help provide some damage?")
   ShowMessageFace("ruka_fc1",0,0,2,4)
   ShowMessage("\\n<Luka>How about becoming a Warrior and aiming to become a Power Fighter?")
   ShowMessageFace("sonia_fc2",4,0,2,5)
   ShowMessage("\\n<Sonya>Did you say something?")
   ShowMessageFace("ruka_fc1",0,0,2,6)
   ShowMessage("\\n<Luka>Nope.")
   0()
  Else()
   ShowMessageFace("sonia_fc1",0,0,2,7)
   ShowMessage("\\n<Sonya>What's after Priest? I guess that's a question every Priest has to face, though I think it depends on what you are planning to do or what your party needs.")
   0()
  EndIf()
  EndEventProcessing()
  DefineLabel("531")
  ShowMessageFace("saniria_fc2",0,0,2,8)
  ShowMessage("\\n<King of San Ilia>White Mage sounds good. Healing even more people appears to suit you better.")
  ShowMessageFace("",0,0,2,9)
  ShowMessage("\\n<Priest>Y-you are...?!")
  ShowMessageFace("saniria_fc2",0,0,2,10)
  ShowMessage("\\n<King of San Ilia>Just a passing mecha.")
  EndEventProcessing()
  0()



EVENT   57
 PAGE   1
  ShowMessageFace("",0,0,2,1)
  ShowMessage("\\n<Guard>Kitsunes are a race of monster that receive the blessing of earth, so it's natural that they resist the earth element.")
  ShowMessageFace("",0,0,2,2)
  ShowMessage("\\n<Guard>You should also be careful of kitsunes' powerful earth element attacks. If you encounter any, check if any of your comrades is weak to earth element.")
  ShowMessageFace("",0,0,2,3)
  ShowMessage("\\n<Guard>Also, kitsunes' weakness is the wind element. If you have access to them, you should attack them with wind skills.")
  355("actor_label_jump")
  EndEventProcessing()
  DefineLabel("56")
  ShowMessageFace("inp_fc1",0,0,2,4)
  ShowMessage("\\n<Rami>I'll beat up aaalll enemies weak to wind element! ")
  EndEventProcessing()
  DefineLabel("102")
  ShowMessageFace("youko_fc1",2,0,2,5)
  ShowMessage("\\n<Kitsu>Stop spreading my weaknesses aroouundd!")
  ShowMessageFace("",0,0,2,6)
  ShowMessage("\\n<Guard>S-sorry.")
  EndEventProcessing()
  0()



EVENT   45
 PAGE   1
  ShowMessageFace("",0,0,2,1)
  ShowMessage("\\n<Scholar>Hm, you want to visit my laboratory? Still, none of you look like a scholar to me.")
  ShowMessageFace("",0,0,2,2)
  ShowMessage("\\n<Scholar>Listen, truth is a concept bestowed by the Goddess. Those who don't know that are merely pebbles by the road.")
  ShowMessageFace("",0,0,2,3)
  ShowMessage("\\n<Scholar>In fact, I've once succeeded in synthesizing Remeton Magic Pillars. Do you all understand what that means?")
  If(4,41,0)
   ShowMessageFace("stein_fc2",0,0,2,4)
   ShowMessage("\\n<Promestein>You said \"once\"? Can I take this to assume you can't replicate your results?")
   ShowMessageFace("",0,0,2,5)
   ShowMessage("\\n<Scholar>What!...well you've got me there. But don't you understand how valuable it was that I did it once?!")
   ShowMessageFace("stein_fc2",0,0,2,6)
   ShowMessage("\\n<Promestein>If you can't replicate it, then others can't verify your results. Parlor tricks that can't even follow the scientific method don't deserve to be called \"science\".")
   ShowMessageFace("",0,0,2,7)
   ShowMessage("\\n<Scholar>Damn you girl, how dare you criticize me!")
   ShowMessageFace("stein_fc2",0,0,2,8)
   ShowMessage("\\n<Promestein>Science and criticism go hand in hand. You aspire to be a scientist, but you aren't prepared for your results to be critizied?")
   ShowMessageFace("",0,0,2,9)
   ShowMessage("\\n<Scholar>Damn, what are you saying! Listen, intellectual laziness is the most heinous enemy in pursuit of truth.")
   ShowMessageFace("stein_fc2",0,0,2,10)
   ShowMessage("\\n<Promestein>Fools speak of simple matters in esoteric terms, the wise speak of esoteric things in simple terms.")
   ShowMessageFace("stein_fc2",0,0,2,11)
   ShowMessage("\\n<Promestein>Your speech only sounds to me of an inverse reflection of your empty mind. With your experiments backed up only by your word of mouth, you pose as a scientist?")
   ShowMessageFace("",0,0,2,12)
   ShowMessage("\\n<Scholar>Grr, what does a girl like you know!")
   ShowMessageFace("stein_fc2",0,0,2,13)
   ShowMessage("\\n<Promestein>Your \"girl\" is merely a personal attack, should I interpret that as you being unable to logically refute?")
   ShowMessageFace("",0,0,2,14)
   ShowMessage("\\n<Scholar>Nghhh, d-damn you! J-just you look!")
   205(0,bytes(0x04,0x08,0x6f,0x3a,0x13,0x52,0x50,0x47,0x3a,0x3a,0x4d,0x6f,0x76,0x65,0x52,0x6f,0x75,0x74,0x65,0x09,0x3a,0x0c,0x40,0x72,0x65,0x70,0x65,0x61,0x74,0x46,0x3a,0x0f,0x40,0x73,0x6b,0x69,0x70,0x70,0x61,0x62,0x6c,0x65,0x46,0x3a,0x0a,0x40,0x77,0x61,0x69,0x74,0x54,0x3a,0x0a,0x40,0x6c,0x69,0x73,0x74,0x5b,0x14,0x6f,0x3a,0x15,0x52,0x50,0x47,0x3a,0x3a,0x4d,0x6f,0x76,0x65,0x43,0x6f,0x6d,0x6d,0x61,0x6e,0x64,0x07,0x3a,0x0a,0x40,0x63,0x6f,0x64,0x65,0x69,0x2a,0x3a,0x10,0x40,0x70,0x61,0x72,0x61,0x6d,0x65,0x74,0x65,0x72,0x73,0x5b,0x00,0x6f,0x3b,0x0a,0x07,0x3b,0x0b,0x69,0x22,0x3b,0x0c,0x5b,0x06,0x69,0x0a,0x6f,0x3b,0x0a,0x07,0x3b,0x0b,0x69,0x23,0x3b,0x0c,0x5b,0x06,0x69,0x0a,0x6f,0x3b,0x0a,0x07,0x3b,0x0b,0x69,0x08,0x3b,0x0c,0x5b,0x00,0x6f,0x3b,0x0a,0x07,0x3b,0x0b,0x69,0x08,0x3b,0x0c,0x5b,0x00,0x6f,0x3b,0x0a,0x07,0x3b,0x0b,0x69,0x08,0x3b,0x0c,0x5b,0x00,0x6f,0x3b,0x0a,0x07,0x3b,0x0b,0x69,0x08,0x3b,0x0c,0x5b,0x00,0x6f,0x3b,0x0a,0x07,0x3b,0x0b,0x69,0x08,0x3b,0x0c,0x5b,0x00,0x6f,0x3b,0x0a,0x07,0x3b,0x0b,0x69,0x08,0x3b,0x0c,0x5b,0x00,0x6f,0x3b,0x0a,0x07,0x3b,0x0b,0x69,0x08,0x3b,0x0c,0x5b,0x00,0x6f,0x3b,0x0a,0x07,0x3b,0x0b,0x69,0x06,0x3b,0x0c,0x5b,0x00,0x6f,0x3b,0x0a,0x07,0x3b,0x0b,0x69,0x06,0x3b,0x0c,0x5b,0x00,0x6f,0x3b,0x0a,0x07,0x3b,0x0b,0x69,0x31,0x3b,0x0c,0x5b,0x06,0x6f,0x3a,0x0c,0x52,0x50,0x47,0x3a,0x3a,0x53,0x45,0x08,0x3a,0x0a,0x40,0x6e,0x61,0x6d,0x65,0x49,0x22,0x09,0x4d,0x6f,0x76,0x65,0x06,0x3a,0x06,0x45,0x54,0x3a,0x0b,0x40,0x70,0x69,0x74,0x63,0x68,0x69,0x69,0x3a,0x0c,0x40,0x76,0x6f,0x6c,0x75,0x6d,0x65,0x69,0x55,0x6f,0x3b,0x0a,0x07,0x3b,0x0b,0x69,0x2c,0x3b,0x0c,0x5b,0x00,0x6f,0x3b,0x0a,0x07,0x3b,0x0b,0x69,0x00,0x3b,0x0c,0x5b,0x00))
   ChangeSwitch(2061,2061,0)
   ChangeSelfSwitch("A",0)
   ShowMessageFace("stein_fc2",0,0,2,15)
   ShowMessage("\\n<Promestein>Whew. I showed him his place.")
   If(0,5,0)
    ShowMessageFace("iriasu_fc4",0,0,2,16)
    ShowMessage("\\n<Ilias>Snappy as always, aren't you, Promestein, ever since you were small, you bullied angels like that.")
    ShowMessageFace("stein_fc2",2,0,2,17)
    ShowMessage("\\n<Promestein>I-I didn't bully anyone!")
    0()
   EndIf()
   0()
  EndIf()
  0()
 PAGE   2
  // condition: self-switch A is ON
  0()



EVENT   58
 PAGE   1
  ShowMessageFace("",0,0,2,1)
  ShowMessage("\\n<Mana Researcher>Dark Mana, the so-called dark energy used with dark element is extremely special. Based on ancient covenant, to use it you need to sacrifice your own life force.")
  ShowMessageFace("",0,0,2,2)
  ShowMessage("\\n<Mana Researcher>In other words, using dark-based techniques and magic consumes HP, the documents say that in exchange, their power is enormous.")
  If(0,4,0)
   ShowMessageFace("alice_fc5",1,0,2,3)
   ShowMessage("\\n<Alice>However, direct descendants of the Monster Lord's clan can activate the power of darkness sacrificing HP at all.")
   ShowMessageFace("alice_fc5",3,0,2,4)
   ShowMessage("\\n<Alice>But now that I'm weakened, I can't using the power of darkness for completely free. I need to sacrifice half of the normally needed amount of HP.")
   0()
  EndIf()
  0()



EVENT   59
 PAGE   1
  ShowMessageFace("",0,0,2,1)
  ShowMessage("\\n<Mana Researcher>Holy Mana, the so-called holy energy used with holy element is extremely special. Based on covenant with Goddess, to use it you need to sacrifice your own magic.")
  ShowMessageFace("",0,0,2,2)
  ShowMessage("\\n<Mana Researcher>In other words, using holy-based techniques and magic consumes MP. Using both SP and MP is quite a burden, isn't it.")
  ShowMessageFace("",0,0,2,3)
  ShowMessage("\\n<Mana Researcher>In exchange, their power is tremendous. If you are able to learn them, they'll be a great asset to your adventure.")
  If(0,5,0)
   ShowMessageFace("iriasu_fc4",0,0,2,4)
   ShowMessage("\\n<Ilias>However, I am the Goddess who bestowed the covenant herself. Of course, I don't need to consume MP to activate holy element.")
   ShowMessageFace("iriasu_fc4",2,0,2,5)
   ShowMessage("\\n<Ilias>But now, my body has limited power, so I need to sacrifice half of the normally needed amount of MP.")
   0()
  EndIf()
  0()



EVENT   60
 PAGE   1
  ShowMessageFace("",0,0,2,1)
  ShowMessage("\\n<Scholar>Monsters that are made by magic are resistant to three magic elements. In other words, they are hard to damage with fire, ice and lightning.")
  ShowMessageFace("",0,0,2,2)
  ShowMessage("\\n<Scholar>In exchange, they are very weak against three natural elements. When fighting magic monsters use wind, earth and water.")
  0()



EVENT   61
 PAGE   1
  ShowMessageFace("",0,0,2,1)
  ShowMessage("\\n<Lecturer>There are armors and weapons that have similar effects, but it seems like their effects don't overlap.")
  ShowMessageFace("",0,0,2,2)
  ShowMessage("\\n<Lecturer>For example \"Gain +100% XP\". If you have a Gain+100% XP ability set, even if you put on an accessory with the same effect.")
  ShowMessageFace("",0,0,2,3)
  ShowMessage("\\n<Lecturer>Unfortunately, the amount of experience you receive won't go up to +200%. You can check whether effects overlap in the status screen.")
  0()



EVENT   62
 PAGE   1
  ShowMessageFace("",0,0,2,1)
  ShowMessage("\\n<Guard>Once you master the warrior class, it splits into two classes, the Swordsmaster and the Power Fighter.")
  ShowMessageFace("",0,0,2,2)
  ShowMessage("\\n<Guard>Swordsmaster, just as name suggest, is an expert in handling swords. Power Fighter is a warrior of herculean strength who uses clubs and flails.")
  ShowMessageFace("",0,0,2,3)
  ShowMessage("\\n<Guard>If you want improvement and versatility, pick Swordsmaster. If you only want raw strength, Power Fighter would be good.")
  0()



EVENT   63
 PAGE   1
  ShowMessageFace("",0,0,2,1)
  ShowMessage("\\n<Doctor>The \"Medicine\" skills that doctor-type classes use are healing techniques that use SP rather than MP. It frees you from heartrending troubles over remaining mana.")
  ShowMessageFace("",0,0,2,2)
  ShowMessage("\\n<Doctor>Instead you get to stress over your remaining SP! I guess both jobs have their merits and demerits.")
  0()



EVENT   64
 PAGE   1
  ShowMessageFace("",0,0,2,1)
  ShowMessage("\\n<Student>Once you master \"Scholar\" it splits into three classes. First is a straight up upgrade, \"Magical Scholar\".")
  ShowMessageFace("",0,0,2,2)
  ShowMessage("\\n<Student>Next is \"Alchemist\" who studies alchemy. And last is \"Magical Librarian\" who learns Grimoire skills.")
  ShowMessageFace("",0,0,2,3)
  ShowMessage("\\n<Student>I wonder which one is the best for finding a job? As for adventuring, I'm even more clueless.")
  0()



EVENT   67
 PAGE   1
  ShowMessageFace("",0,0,2,1)
  ShowMessage("\\n<Student>Yamatai's rural areas seem to have many monsters emigrating. Apparently, they are currently spreading their habitat beyond Yamatai.")
  ShowMessageFace("",0,0,2,2)
  ShowMessage("\\n<Student>Biologically speaking, they are called Demi-Human type monsters. They have a high life force and are characterized by high resistance to ice element.")
  355("actor_label_jump")
  EndEventProcessing()
  DefineLabel("62")
  ShowMessageFace("gob_fc1",0,0,2,3)
  ShowMessage("\\n<Gob>I'm from Yamatai toooooo!")
  EndEventProcessing()
  DefineLabel("157")
  ShowMessageFace("oogumo_fc1",0,0,2,4)
  ShowMessage("\\n<Ashidaka>I'm a spider youkai! I was born in Yamatai you see!")
  EndEventProcessing()
  0()



EVENT   68
 PAGE   1
  ShowMessageFace("",0,0,2,1)
  ShowMessage("\\n<Biologist>Yoma are, needless to say, demons. They boast of high physical ability and magical power that surpasses that of other monsters.")
  ShowMessageFace("",0,0,2,2)
  ShowMessage("\\n<Biologist>They are especially good at fire techniques and appear to be highly-resistant to fire. Of course, this is knowledge from documents, I've never seen one myself.")
  355("actor_label_jump")
  EndEventProcessing()
  DefineLabel("5")
  ShowMessageFace("alice_fc5",1,0,2,3)
  ShowMessage("\\n<Alice>You say that as one is right in front of you.")
  ShowMessageFace("",0,0,2,4)
  ShowMessage("\\n<Biologist>Woah, so small.")
  EndEventProcessing()
  0()



EVENT   69
 PAGE   1
  ShowMessageFace("",0,0,2,1)
  ShowMessage("\\n<Scholar>Doll-type monsters are immune to many ailments. Their spirit and body are completely different from other monsters, so it's natural.")
  355("actor_label_jump")
  EndEventProcessing()
  DefineLabel("71")
  ShowMessageFace("okami_fc1",2,0,2,2)
  ShowMessage("\\n<Amara>I'm envious. Beasts are weak against ailments, so we get dizzy right away.")
  EndEventProcessing()
  DefineLabel("131")
  ShowMessageFace("doll_fc1",0,0,2,3)
  ShowMessage("\\n<Miyabi>That way we can play a lot more.")
  EndEventProcessing()
  0()



EVENT   70
 PAGE   1
  ShowMessageFace("",0,0,2,1)
  ShowMessage("\\n<Ninja>Shurikens disappear upon throwing. On that note, I need to restock soon.")
  ShowMessageFace("",0,0,2,2)
  ShowMessage("\\n<Ninja>Well it's just Ninjas who throw shurikens. If you have no Ninjas in your party, then they're useless.")
  355("actor_label_jump")
  EndEventProcessing()
  DefineLabel("102")
  ShowMessageFace("youko_fc1",1,0,2,3)
  ShowMessage("\\n<Kitsu>Nin nin! I'm a newbie Niinjaaa♪!")
  EndEventProcessing()
  0()



EVENT   71
 PAGE   1
  ShowMessageFace("",0,0,2,1)
  ShowMessage("\\n<Scholar>\"Taoism\" is Magician-type class, but it has overall high stats. While Magician is weak in general, that's not the case for Taoists.")
  ShowMessageFace("",0,0,2,2)
  ShowMessage("\\n<Scholar>However to become a Taoist, you need a job change item. While it seems the item is passed down in the East, it's difficult to get, down here especially.")
  355("actor_label_jump")
  EndEventProcessing()
  DefineLabel("103")
  ShowMessageFace("kamuro_fc1",0,0,2,3)
  ShowMessage("\\n<Kamuro>I was taught at a school for kitsunes, so while I'm an apprentice, I do have a Taoist job.")
  ShowMessageFace("",0,0,2,4)
  ShowMessage("\\n<Scholar>Amazing, it's the first time I've seen a real Taoist! Do you have some kind of talisman? Come on, show me!")
  ShowMessageFace("kamuro_fc1",2,0,2,5)
  ShowMessage("\\n<Kamuro>He's making me really nervous...")
  EndEventProcessing()
  0()



EVENT   72
 PAGE   1
  250(bytes(0x04,0x08,0x6f,0x3a,0x0c,0x52,0x50,0x47,0x3a,0x3a,0x53,0x45,0x08,0x3a,0x0a,0x40,0x6e,0x61,0x6d,0x65,0x49,0x22,0x0a,0x49,0x74,0x65,0x6d,0x31,0x06,0x3a,0x06,0x45,0x54,0x3a,0x0b,0x40,0x70,0x69,0x74,0x63,0x68,0x69,0x69,0x3a,0x0c,0x40,0x76,0x6f,0x6c,0x75,0x6d,0x65,0x69,0x55))
  ChangeSelfSwitch("A",0)
  ChangeInventory_Item(340,0,0,1)
  0()
 PAGE   2
  // condition: self-switch A is ON
  0()



EVENT   73
 PAGE   1
  250(bytes(0x04,0x08,0x6f,0x3a,0x0c,0x52,0x50,0x47,0x3a,0x3a,0x53,0x45,0x08,0x3a,0x0a,0x40,0x6e,0x61,0x6d,0x65,0x49,0x22,0x0a,0x49,0x74,0x65,0x6d,0x31,0x06,0x3a,0x06,0x45,0x54,0x3a,0x0b,0x40,0x70,0x69,0x74,0x63,0x68,0x69,0x69,0x3a,0x0c,0x40,0x76,0x6f,0x6c,0x75,0x6d,0x65,0x69,0x55))
  ChangeSelfSwitch("A",0)
  ChangeInventory_Item(14,0,0,1)
  0()
 PAGE   2
  // condition: self-switch A is ON
  0()



EVENT   74
 PAGE   1
  250(bytes(0x04,0x08,0x6f,0x3a,0x0c,0x52,0x50,0x47,0x3a,0x3a,0x53,0x45,0x08,0x3a,0x0a,0x40,0x6e,0x61,0x6d,0x65,0x49,0x22,0x0a,0x49,0x74,0x65,0x6d,0x31,0x06,0x3a,0x06,0x45,0x54,0x3a,0x0b,0x40,0x70,0x69,0x74,0x63,0x68,0x69,0x69,0x3a,0x0c,0x40,0x76,0x6f,0x6c,0x75,0x6d,0x65,0x69,0x55))
  ChangeSelfSwitch("A",0)
  ChangeInventoryArmor(237,0,0,1,false)
  0()
 PAGE   2
  // condition: self-switch A is ON
  0()



EVENT   75
 PAGE   1
  250(bytes(0x04,0x08,0x6f,0x3a,0x0c,0x52,0x50,0x47,0x3a,0x3a,0x53,0x45,0x08,0x3a,0x0a,0x40,0x6e,0x61,0x6d,0x65,0x49,0x22,0x0a,0x49,0x74,0x65,0x6d,0x31,0x06,0x3a,0x06,0x45,0x54,0x3a,0x0b,0x40,0x70,0x69,0x74,0x63,0x68,0x69,0x69,0x3a,0x0c,0x40,0x76,0x6f,0x6c,0x75,0x6d,0x65,0x69,0x55))
  ChangeSelfSwitch("A",0)
  ChangeInventory_Item(101,0,0,1)
  0()
 PAGE   2
  // condition: self-switch A is ON
  0()



EVENT   77
 PAGE   1
  250(bytes(0x04,0x08,0x6f,0x3a,0x0c,0x52,0x50,0x47,0x3a,0x3a,0x53,0x45,0x08,0x3a,0x0a,0x40,0x6e,0x61,0x6d,0x65,0x49,0x22,0x0a,0x49,0x74,0x65,0x6d,0x31,0x06,0x3a,0x06,0x45,0x54,0x3a,0x0b,0x40,0x70,0x69,0x74,0x63,0x68,0x69,0x69,0x3a,0x0c,0x40,0x76,0x6f,0x6c,0x75,0x6d,0x65,0x69,0x55))
  ChangeSelfSwitch("A",0)
  ChangeInventory_Item(64,0,0,1)
  0()
 PAGE   2
  // condition: self-switch A is ON
  0()



EVENT   78
 PAGE   1
  250(bytes(0x04,0x08,0x6f,0x3a,0x0c,0x52,0x50,0x47,0x3a,0x3a,0x53,0x45,0x08,0x3a,0x0a,0x40,0x6e,0x61,0x6d,0x65,0x49,0x22,0x0a,0x49,0x74,0x65,0x6d,0x31,0x06,0x3a,0x06,0x45,0x54,0x3a,0x0b,0x40,0x70,0x69,0x74,0x63,0x68,0x69,0x69,0x3a,0x0c,0x40,0x76,0x6f,0x6c,0x75,0x6d,0x65,0x69,0x55))
  ChangeSelfSwitch("A",0)
  ChangeInventoryArmor(1509,0,0,1,false)
  0()
 PAGE   2
  // condition: self-switch A is ON
  0()



EVENT   76
 PAGE   1
  250(bytes(0x04,0x08,0x6f,0x3a,0x0c,0x52,0x50,0x47,0x3a,0x3a,0x53,0x45,0x08,0x3a,0x0a,0x40,0x6e,0x61,0x6d,0x65,0x49,0x22,0x0a,0x49,0x74,0x65,0x6d,0x31,0x06,0x3a,0x06,0x45,0x54,0x3a,0x0b,0x40,0x70,0x69,0x74,0x63,0x68,0x69,0x69,0x3a,0x0c,0x40,0x76,0x6f,0x6c,0x75,0x6d,0x65,0x69,0x55))
  ChangeSelfSwitch("A",0)
  ChangeInventory_Item(52,0,0,1)
  0()
 PAGE   2
  // condition: self-switch A is ON
  0()



EVENT   82
 PAGE   1
  ShowMessageFace("",0,0,2,1)
  ShowMessage("\\n<Scholar>Strange phenomena were seen around various Tartarus rifts. Apparently, plants grow abnormally fast and are deformed.")
  ShowMessageFace("",0,0,2,2)
  ShowMessage("\\n<Scholar>Before Rostrum was destroyed, such reports had come from there. I wonder if it the cause was some unknown influence from Tartarus.")
  355("actor_label_jump")
  EndEventProcessing()
  DefineLabel("41")
  ShowMessageFace("stein_fc2",0,0,2,3)
  ShowMessage("\\n<Promestein>Radiation dosage has to be measured, samples need to be taken. I need more data, but I can't exactly spend a few weeks researching it. Maybe if I had some help...")
  EndEventProcessing()
  0()



EVENT   83
 PAGE   1
  If(0,2063,1)
   ShowMessageFace("",0,0,2,1)
   ShowMessage("\\n<Guard>Upstairs is off limits to the general public. They study magic science and have many dangerous objects up there.")
   0()
  Else()
   ShowMessageFace("",0,0,2,2)
   ShowMessage("\\n<Guard>It seems like you have an entrance permit. Go on and be careful.")
   0()
  EndIf()
  0()



EVENT   84
 PAGE   1
  ShowMessageFace("",0,0,2,1)
  ShowMessage("\\n<Guard>Upstairs is off limits to the general public. They study magic science and have many dangerous objects up there.")
  205(-1,bytes(0x04,0x08,0x6f,0x3a,0x13,0x52,0x50,0x47,0x3a,0x3a,0x4d,0x6f,0x76,0x65,0x52,0x6f,0x75,0x74,0x65,0x09,0x3a,0x0c,0x40,0x72,0x65,0x70,0x65,0x61,0x74,0x46,0x3a,0x0f,0x40,0x73,0x6b,0x69,0x70,0x70,0x61,0x62,0x6c,0x65,0x46,0x3a,0x0a,0x40,0x77,0x61,0x69,0x74,0x54,0x3a,0x0a,0x40,0x6c,0x69,0x73,0x74,0x5b,0x07,0x6f,0x3a,0x15,0x52,0x50,0x47,0x3a,0x3a,0x4d,0x6f,0x76,0x65,0x43,0x6f,0x6d,0x6d,0x61,0x6e,0x64,0x07,0x3a,0x0a,0x40,0x63,0x6f,0x64,0x65,0x69,0x06,0x3a,0x10,0x40,0x70,0x61,0x72,0x61,0x6d,0x65,0x74,0x65,0x72,0x73,0x5b,0x00,0x6f,0x3b,0x0a,0x07,0x3b,0x0b,0x69,0x00,0x3b,0x0c,0x5b,0x00))
  0()
 PAGE   2
  // condition: switch 2063 is ON
  0()



EVENT   85
 PAGE   1
  ShowMessageFace("",0,0,2,1)
  ShowMessage("\\n<Guard>Upstairs is off limits to the general public. They study magic science and have many dangerous objects up there.")
  205(-1,bytes(0x04,0x08,0x6f,0x3a,0x13,0x52,0x50,0x47,0x3a,0x3a,0x4d,0x6f,0x76,0x65,0x52,0x6f,0x75,0x74,0x65,0x09,0x3a,0x0c,0x40,0x72,0x65,0x70,0x65,0x61,0x74,0x46,0x3a,0x0f,0x40,0x73,0x6b,0x69,0x70,0x70,0x61,0x62,0x6c,0x65,0x46,0x3a,0x0a,0x40,0x77,0x61,0x69,0x74,0x54,0x3a,0x0a,0x40,0x6c,0x69,0x73,0x74,0x5b,0x07,0x6f,0x3a,0x15,0x52,0x50,0x47,0x3a,0x3a,0x4d,0x6f,0x76,0x65,0x43,0x6f,0x6d,0x6d,0x61,0x6e,0x64,0x07,0x3a,0x0a,0x40,0x63,0x6f,0x64,0x65,0x69,0x06,0x3a,0x10,0x40,0x70,0x61,0x72,0x61,0x6d,0x65,0x74,0x65,0x72,0x73,0x5b,0x00,0x6f,0x3b,0x0a,0x07,0x3b,0x0b,0x69,0x00,0x3b,0x0c,0x5b,0x00))
  0()
 PAGE   2
  // condition: switch 2063 is ON
  0()



EVENT   38
 PAGE   1
  ShowMessageFace("",0,0,2,1)
  ShowMessage("\\n<Guard>For example, if you have a sword filled with wind element and attack a kitsune, since they are weak to wind.")
  ShowMessageFace("",0,0,2,2)
  ShowMessage("\\n<Guard>What would happen in comparison to an attack with a normal sword?")
  ShowChoices(strings("The damage would increase","The damage wouldn't change","Don't know"),3)
  IfPlayerPicksChoice(0,null)
   ShowMessageFace("",0,0,2,3)
   ShowMessage("\\n<Guard>Exactly, damage increases when you attack with an element the enemy is weak against. Well, that's obvious though.")
   0()
  IfPlayerPicksChoice(1,null)
   ShowMessageFace("",0,0,2,4)
   ShowMessage("\\n<Guard>Hey, hey, this is the basic of the basics. If you attack an enemy with an element they are weak against, the damage will increase.")
   0()
  IfPlayerPicksChoice(2,null)
   ShowMessageFace("",0,0,2,5)
   ShowMessage("\\n<Guard>Hey, hey, this is the basic of the basics. If you attack an enemy with an element they are weak against, the damage will increase.")
   0()
  404()
  ShowMessageFace("",0,0,2,6)
  ShowMessage("\\n<Guard>Similarly, if you have a sword filled with wind element and attack a harpy that halves the wind damage.")
  ShowMessageFace("",0,0,2,7)
  ShowMessage("\\n<Guard>...What would happen in comparison to an attack with a normal sword?")
  ShowChoices(strings("The damage would halve","The damage wouldn't change","Don't know"),3)
  IfPlayerPicksChoice(0,null)
   ShowMessageFace("",0,0,2,8)
   ShowMessage("\\n<Guard>You'd think so, that's actually wrong. In fact, the correct answer is that damage wouldn't change when you use a normal sword.")
   0()
  IfPlayerPicksChoice(1,null)
   ShowMessageFace("",0,0,2,9)
   ShowMessage("\\n<Guard>Ohh, so you know. In that case, there's no point in me explaining.")
   0()
  IfPlayerPicksChoice(2,null)
   ShowMessageFace("",0,0,2,10)
   ShowMessage("\\n<Guard>In that case, remember this: The damage wouldn't change from when you use a normal sword.")
   0()
  404()
  ShowMessageFace("",0,0,2,11)
  ShowMessage("\\n<Guard>Let's think about it in more detail. A sword filled with wind element is both wind and physical elemental.")
  ShowMessageFace("",0,0,2,12)
  ShowMessage("\\n<Guard>That's why even if enemy is resistant to wind element, the physical element deals damage to them. A sword filled with an extra element never gets a damage decrease.")
  ShowMessageFace("",0,0,2,13)
  ShowMessage("\\n<Guard>You can see many misunderstand this in the world out there, but elemental weapons also deliver good attacks to resistant enemies.")
  ShowMessageFace("",0,0,2,14)
  ShowMessage("\\n<Guard>However, there are a few exceptions. Attacks with a harp don't have a physical element and are purely sonic element.")
  ShowMessageFace("",0,0,2,15)
  ShowMessage("\\n<Guard>Therefore, it's hard to damage an enemy resistant to sonic with a harp. When equipped with a harp, you should be careful of mermaid-type enemies who have resistance to sonic.")
  0()



EVENT   86
 PAGE   1
  ShowMessageFace("",0,0,2,1)
  ShowMessage("\\n<Cow>Moo!")
  If(0,6,0)
   ShowMessageFace("sonia_fc3",2,0,2,2)
   ShowMessage("\\n<Sonya>Why the hell is there a cow here?!")
   0()
  EndIf()
  0()



EVENT   87
 PAGE   1
  0()



EVENT   80
 PAGE   1
  ShowMessageFace("",0,0,2,1)
  ShowMessage("\\n<Scholar>We're amusing geoscientistic bastardos♪ we expedition everywhere from mountains to valleys♪.")
  355("actor_label_jump")
  EndEventProcessing()
  DefineLabel("59")
  ShowMessageFace("mdg_fc1",0,0,2,2)
  ShowMessage("\\n<Ragora>Can I sing together with you?")
  ShowMessageFace("",0,0,2,3)
  ShowMessage("\\n<Scholar>No.")
  EndEventProcessing()
  0()



EVENT   32
 PAGE   1
  ShowMessageFace("",0,0,2,1)
  ShowMessage("\\n<Student>Nightingale from the medical faculty is strangely erotic. Nurses like that raise my blood pressure.")
  355("actor_label_jump")
  EndEventProcessing()
  DefineLabel("73")
  ShowMessageFace("hiru_fc1",0,0,2,2)
  ShowMessage("\\n<Hiru>How about I suck it out for you?")
  ShowMessageFace("",0,0,2,3)
  ShowMessage("\\n<Student>Semen is one thing, but spare my blood.")
  EndEventProcessing()
  DefineLabel("166")
  ShowMessageFace("narcubus_fc1",0,0,2,4)
  ShowMessage("\\n<Manako>That's no good, I'll have to give you injection♪.")
  EndEventProcessing()
  0()



EVENT   81
 PAGE   1
  ShowMessageFace("",0,0,2,1)
  ShowMessage("\\n<Student>Ahh, I need to hurry and finish these problems! My credits are at stake!")
  If(0,6,0)
   ShowMessageFace("sonia_fc4",0,0,2,2)
   ShowMessage("\\n<Sonya>If he's in such a hurry, then why is he walking back and forth in here?")
   0()
  EndIf()
  0()



EVENT   24
 PAGE   1
  If(0,2061,1)
   ShowMessageFace("",0,0,2,1)
   ShowMessage("\\n<Student>Our professor is very arrogant, he bullies us, and apparently sexually harasses female students. He's hated by everyone, but everyone keeps it to themselves.")
   ShowMessageFace("",0,0,2,2)
   ShowMessage("\\n<Student>I wonder if there's a way to outwit him? It would be great if someone beat him at his own game. I mean in an argument, not at bullying and sexual harassing the students.")
   EndEventProcessing()
   0()
  Else()
   ShowMessageFace("",0,0,2,3)
   ShowMessage("\\n<Student>Ahh, it was really thrilling to see that professor get taken down a peg.")
   If(4,41,0)
    ShowMessageFace("stein_fc2",0,0,2,4)
    ShowMessage("\\n<Promestein>No, it might have been a little childish of me.")
    ShowMessageFace("",0,0,2,5)
    ShowMessage("\\n<Student>By the way, can I cum on your glasses sometime?")
    ShowMessageFace("stein_fc2",0,0,2,6)
    ShowMessage("\\n<Promestein>Put your semen samples in this test tube. There's lots of use for it, such as feed for experimental organisms.")
    If(0,6,0)
     ShowMessageFace("sonia_fc3",0,0,2,7)
     ShowMessage("\\n<Sonya>(This student, he definitely comes from Pornof. I wonder if anyone will notice if he goes missing?)")
     0()
    EndIf()
    0()
   EndIf()
   0()
  EndIf()
  0()



EVENT   89
 PAGE   1
  ShowMessageFace("",0,0,2,1)
  ShowMessage("\\n<Scholar>I tried to investigate data concerning the Great Disaster from over 30 years ago. Geomagnetic changes, mana diffusion and various others data points.")
  ShowMessageFace("",0,0,2,2)
  ShowMessage("\\n<Scholar>All of it shows that the origin of this Great Disaster is at Remina. What on earth happened in that town?")
  If(0,4,0)
   ShowMessageFace("alice_fc5",0,0,2,3)
   ShowMessage("\\n<Alice>So the Great Disaster did start at Remina. Was that actually Remina in the tartarus?")
   0()
  EndIf()
  If(0,5,0)
   ShowMessageFace("iriasu_fc4",2,0,2,4)
   ShowMessage("\\n<Ilias>Remina, even in the tartarus it was ruined.")
   0()
  EndIf()
  0()



EVENT   90
 PAGE   1
  ShowMessageFace("",0,0,2,1)
  ShowMessage("\\n<Scholar>I'd like to go to San Ilia's great library. There are supposedly books on every subject conceivable there.")
  355("actor_label_jump")
  EndEventProcessing()
  DefineLabel("119")
  ShowMessageFace("page17_fc1",0,0,2,2)
  ShowMessage("\\n<Annie>There's an unexpectedly few books. Well, books for monsters I mean.")
  EndEventProcessing()
  DefineLabel("120")
  ShowMessageFace("page257_fc1",0,0,2,3)
  ShowMessage("\\n<Yoko>It's mostly just academic material. It's so boring.")
  EndEventProcessing()
  DefineLabel("121")
  ShowMessageFace("page65537_fc1",1,0,2,4)
  ShowMessage("\\n<Cornelia>Come by all means. All who love books are welcome.")
  EndEventProcessing()
  0()



EVENT   91
 PAGE   1
  ShowMessageFace("",0,0,2,1)
  ShowMessage("\\n<Guard>Are you remembering to swap party members in combat? Being able to replace them on case-by-case basis is beyond useful.")
  ShowMessageFace("",0,0,2,2)
  ShowMessage("\\n<Guard>For example, when your comrade fainted and you're in a pinch or they ran out of SP and MP, turning useless.")
  ShowMessageFace("",0,0,2,3)
  ShowMessage("\\n<Guard>At times like these you should bring out some of the fresh back line. Also, it's clever to swap around comrades as they receive ailments.")
  ShowMessageFace("",0,0,2,4)
  ShowMessage("\\n<Guard>But in case of ailments that are treated after a turn passes, automatic recovery doesn't work when they are in the back, so be careful.")
  0()



EVENT   88
 PAGE   1
  ShowMessageFace("",0,0,2,1)
  ShowMessage("\\n<Guard>For example, if you have a sword that's filled with combination of fire and ice elements and attack an enemy that's immune to fire and weak to ice.")
  ShowMessageFace("",0,0,2,2)
  ShowMessage("\\n<Guard>What would happen in comparison to an attack with a normal sword?")
  ShowChoices(strings("Large damage","Normal damage","No damage","Don't know"),4)
  IfPlayerPicksChoice(0,null)
   ShowMessageFace("",0,0,2,3)
   ShowMessage("\\n<Guard>Correct, so you knew. In this case, the element that deals a larger amount of damage takes precedence.")
   0()
  IfPlayerPicksChoice(1,null)
   ShowMessageFace("",0,0,2,4)
   ShowMessage("\\n<Guard>No, that's wrong. In this case, ice element takes priority since it deals larger damage.")
   0()
  IfPlayerPicksChoice(2,null)
   ShowMessageFace("",0,0,2,5)
   ShowMessage("\\n<Guard>No, that's wrong. In this case, ice element takes priority since it deals larger damage.")
   0()
  IfPlayerPicksChoice(3,null)
   ShowMessageFace("",0,0,2,6)
   ShowMessage("\\n<Guard>Is that so? In this case, ice element takes priority since it deals larger damage.")
   0()
  404()
  ShowMessageFace("",0,0,2,7)
  ShowMessage("\\n<Guard>When your attack is equipped with multiple elements, the one with the highest damage takes precedence.")
  ShowMessageFace("",0,0,2,8)
  ShowMessage("\\n<Guard>It's the same for skills that combine multiple elements. Remember this.")
  0()



EVENT   92
 PAGE   1
  ShowMessageFace("",0,0,2,1)
  ShowMessage("\\n<Lecturer>This lobby is open for normal adventurers. Please listen to useful adventurer lectures.")
  355("actor_label_jump")
  EndEventProcessing()
  DefineLabel("41")
  ShowMessageFace("stein_fc2",0,0,2,2)
  ShowMessage("\\n<Promestein>Adventurer lectures, I don't care.")
  EndEventProcessing()
  0()



EVENT   93
 PAGE   1
  ShowMessageFace("",0,0,2,1)
  ShowMessage("\\n<Female Martial Artist>SP also recovers on counterattacks, so if you have a high counter rate, there's more opportunities to recover SP!")
  0()



EVENT   94
 PAGE   1
  ShowMessageFace("",0,0,2,1)
  ShowMessage("\\n<Guard>Even martial artists have multiple fist strike skills, skills that hit more than once, right? Those fist strikes are quite powerful but...")
  ShowMessageFace("",0,0,2,2)
  ShowMessage("\\n<Guard>When used on an enemy with high defence, the damage per hit falls significantly. As a result, the skill's overall power decreases.")
  ShowMessageFace("",0,0,2,3)
  ShowMessage("\\n<Guard>It's best to refrain from using skills with multiple strikes against defensive enemies. It's best to use single attacks on them.")
  0()



EVENT   95
 PAGE   1
  250(bytes(0x04,0x08,0x6f,0x3a,0x0c,0x52,0x50,0x47,0x3a,0x3a,0x53,0x45,0x08,0x3a,0x0a,0x40,0x6e,0x61,0x6d,0x65,0x49,0x22,0x0a,0x49,0x74,0x65,0x6d,0x31,0x06,0x3a,0x06,0x45,0x54,0x3a,0x0b,0x40,0x70,0x69,0x74,0x63,0x68,0x69,0x69,0x3a,0x0c,0x40,0x76,0x6f,0x6c,0x75,0x6d,0x65,0x69,0x55))
  ChangeSelfSwitch("A",0)
  ChangeInventory_Item(375,0,0,1)
  0()
 PAGE   2
  // condition: self-switch A is ON
  0()



EVENT   96
 PAGE   1
  ShowMessageFace("",0,0,2,1)
  ShowMessage("\\n<Scholar>I think that the best invention of the magic revolution is this pot. By using magic power, you can keep food fresh forever.")
  ShowMessageFace("",0,0,2,2)
  ShowMessage("\\n<Scholar>This pot is already spreading to commoner homes. The inventor must have made quite the tidy sum of money from this.")
  355("actor_label_jump")
  EndEventProcessing()
  DefineLabel("70")
  ShowMessageFace("nezumi_fc1",0,0,2,3)
  ShowMessage("\\n<Ratty>So this pot held such a secret! And here I wondered why its food wasn't rotting.")
  EndEventProcessing()
  DefineLabel("162")
  ShowMessageFace("mitutubo_fc1",0,0,2,4)
  ShowMessage("\\n<Mitsuko>It's a good pot. It makes me want to enter it at times.")
  EndEventProcessing()
  0()



EVENT   97
 PAGE   1
  ShowMessageFace("",0,0,2,1)
  ShowMessage("\\n<Lecturer>There's a ability called \"Magic Reflection +xx%\". When you are attacked with magic when you have this ability equipped, magic is reflected with probability based on the number.")
  ShowMessageFace("",0,0,2,2)
  ShowMessage("\\n<Lecturer>Of course, the person reflecting it doesn't receive damage. It's clearly quite useful against mages.")
  ShowMessageFace("",0,0,2,3)
  ShowMessage("\\n<Lecturer>It should be noted that magic coming from allies isn't reflected. No need to worry whether your healing magic will be repelled.")
  0()



EVENT   98
 PAGE   1
  ShowMessageFace("dog_fc1",0,0,2,1)
  ShowMessage("\\n<Dog Girl>Woof woof. When I'm here I feel like I'm smarter.")
  If(4,60,0)
   ShowMessageFace("dog_fc1",2,0,2,2)
   ShowMessage("\\n<Pochi>You entered the best university, my fellow... are you biting into human society to dominate it from the inside?")
   ShowMessageFace("dog_fc1",4,0,2,3)
   ShowMessage("\\n<Pochi>...Nevermind")
   If(2,"A",1)
    ChangeSelfSwitch("A",0)
    ChangeVariable(1036,1036,1,0,1)
    If(1,1036,0,9,1)
     RunCommonEvent(311)
     0()
    Else()
     0()
    EndIf()
    0()
   EndIf()
   0()
  EndIf()
  0()



EVENT   99
 PAGE   1
  ShowMessageFace("",0,0,2,1)
  ShowMessage("\\n<White Mage>Support magic such as Enhance Guard simply raises the ability of one member, but the higher level version of it has an effect on entire party.")
  ShowMessageFace("",0,0,2,2)
  ShowMessage("\\n<White Mage>That's how it is, so single target support magic is inferior to full party support. You might think so, but it's not absolute.")
  ShowMessageFace("",0,0,2,3)
  ShowMessage("\\n<White Mage>Actually, single target magic has a longer duration. Full party magic effects expire faster.")
  ShowMessageFace("",0,0,2,4)
  ShowMessage("\\n<White Mage>Single target support magic has longer effect duration. Remember this, it might be helpful.")
  0()



EVENT   100
 PAGE   1
  ShowMessageFace("",0,0,2,1)
  ShowMessage("\\n<Scholar>I'm often asked why are we studying magic science. Is there any point to it amd such?.")
  ShowMessageFace("",0,0,2,2)
  ShowMessage("\\n<Scholar>There's one answer, it's because we seek the truth. We want to explain the mechanisms moving this world.")
  If(4,41,0)
   ShowMessageFace("stein_fc2",1,0,2,3)
   ShowMessage("\\n<Promestein>It's just as you say. The true nature of this world and the way it functions...")
   ShowMessageFace("stein_fc2",1,0,2,4)
   ShowMessage("\\n<Promestein>The moment we understand it, we well up with joy and excitement! The more we unveil, the more we are urged on by curiosity and excitement!")
   If(0,4,0)
    ShowMessageFace("alice_fc5",0,0,2,5)
    ShowMessage("\\n<Alice>It's a miracle you actually fit into angel society with thinking like that.")
    ShowMessageFace("stein_fc2",0,0,2,6)
    ShowMessage("\\n<Promestein>But I didn't... That bunch rejects curiosity. They've lost that excitement you feel when you discover something new.")
    ShowMessageFace("stein_fc2",0,0,2,7)
    ShowMessage("\\n<Promestein>To be satisfied with an answer that's a pathetic excuse for a lie. I abhor the fools who trample the feelings of those seeking the truth.")
    0()
   EndIf()
   If(0,5,0)
    ShowMessageFace("iriasu_fc4",0,0,2,8)
    ShowMessage("\\n<Ilias>Promestein, if you keep acting like this, you'll never fit in as a angel. You should adhere to my teachings faithfully and and do my will like the other angels.")
    ShowMessageFace("stein_fc2",0,0,2,9)
    ShowMessage("\\n<Promestein>Haa? You must be joking, right? That bunch rejects curiosity. They've lost that excitement you feel when you discover something new.")
    ShowMessageFace("stein_fc2",0,0,2,10)
    ShowMessage("\\n<Promestein>>To be satisfied with an answer that's a pathetic excuse for a lie. I abhor the fools who trample the feelings of those seeking the truth.")
    ShowMessageFace("iriasu_fc4",2,0,2,11)
    ShowMessage("\\n<Ilias>(Annnnnd it's back to the cave with you.)")
    0()
   EndIf()
   0()
  EndIf()
  0()



EVENT   65
 PAGE   1
  ShowMessageFace("",0,0,2,1)
  ShowMessage("\\n<Scholar>\"Alchemist\" is an advanced class which produces matter from mana. In combat an alchemist can create items with Alchemy, consuming MP and SP.")
  ShowMessageFace("",0,0,2,2)
  ShowMessage("\\n<Scholar>However, items made with mana can't be stored for long. If you make one, you need to use it immediately.")
  ShowMessageFace("",0,0,2,3)
  ShowMessage("\\n<Scholar>With that said, being able to make items freely is something amazing. I feel like I should begin training to become an Alchemist and go on an adventure.")
  ShowMessageFace("",0,0,2,4)
  ShowMessage("\\n<Scholar>Rescue a Princess, be assaulted by a beautiful monster... uhehe...")
  355("actor_label_jump")
  EndEventProcessing()
  DefineLabel("167")
  ShowMessageFace("lusia_fc1",0,0,2,5)
  ShowMessage("\\n<Lucia>Alchemist's have a dreams don't they? You should follow your dream as an Alchemist.")
  If(0,6,0)
   ShowMessageFace("sonia_fc4",0,0,2,6)
   ShowMessage("\\n<Sonya>Lucia, is that really okay?")
   0()
  EndIf()
  EndEventProcessing()
  0()



EVENT   66
 PAGE   1
  ShowMessageFace("",0,0,2,1)
  ShowMessage("\\n<Scholar>\"Magical Librarian\" is a higher class of Scholar who uses \"Grimoire\" skills. While \"Grimoire\" is a type of magic...")
  ShowMessageFace("",0,0,2,2)
  ShowMessage("\\n<Scholar>...instead of MP, you use a consumable items called \"Grimoire Pages\". By doing so, you activate powerful magics.")
  ShowMessageFace("",0,0,2,3)
  ShowMessage("\\n<Scholar>\"Grimoire Pages\" can be purchased at specialty stores. It costs a lot to use grimoire skills, but the power is worth it.")
  355("actor_label_jump")
  EndEventProcessing()
  DefineLabel("121")
  ShowMessageFace("page65537_fc1",0,0,2,4)
  ShowMessage("\\n<Cornelia>Rather than normal magic, it would be best used as a trump card. While it uses up the item, the magic's power is guaranteed.")
  EndEventProcessing()
  0()



EVENT   46
 PAGE   1
  If(1,1019,0,1,2)
   ShowMessageFace("mob_nasu1_fc1",0,0,2,1)
   ShowMessage("\\n<Nightingale>Ufufu... I'm a little tied up, maybe later?")
   EndEventProcessing()
   0()
  EndIf()
  If(1,811,0,2,1)
   If(0,1554,1)
    ShowMessageFace("mob_nasu1_fc1",0,0,2,2)
    ShowMessage("\\n<Nightingale>There will probably be lots of injured people on your journey. How about I go with you and heal them?")
    ShowChoices(strings("Let her join","Decline for now"),0)
    IfPlayerPicksChoice(0,null)
     ShowMessageFace("mob_nasu1_fc1",0,0,2,3)
     ShowMessage("\\n<Nightingale>Take care of me ufufu.")
     PictureClear(5)
     205(0,bytes(0x04,0x08,0x6f,0x3a,0x13,0x52,0x50,0x47,0x3a,0x3a,0x4d,0x6f,0x76,0x65,0x52,0x6f,0x75,0x74,0x65,0x09,0x3a,0x0c,0x40,0x72,0x65,0x70,0x65,0x61,0x74,0x46,0x3a,0x0f,0x40,0x73,0x6b,0x69,0x70,0x70,0x61,0x62,0x6c,0x65,0x46,0x3a,0x0a,0x40,0x77,0x61,0x69,0x74,0x54,0x3a,0x0a,0x40,0x6c,0x69,0x73,0x74,0x5b,0x09,0x6f,0x3a,0x15,0x52,0x50,0x47,0x3a,0x3a,0x4d,0x6f,0x76,0x65,0x43,0x6f,0x6d,0x6d,0x61,0x6e,0x64,0x07,0x3a,0x0a,0x40,0x63,0x6f,0x64,0x65,0x69,0x2a,0x3a,0x10,0x40,0x70,0x61,0x72,0x61,0x6d,0x65,0x74,0x65,0x72,0x73,0x5b,0x00,0x6f,0x3b,0x0a,0x07,0x3b,0x0b,0x69,0x0f,0x3b,0x0c,0x5b,0x00,0x6f,0x3b,0x0a,0x07,0x3b,0x0b,0x69,0x2c,0x3b,0x0c,0x5b,0x00,0x6f,0x3b,0x0a,0x07,0x3b,0x0b,0x69,0x00,0x3b,0x0c,0x5b,0x00))
     355("add_actor_ex(554)")
     249(bytes(0x04,0x08,0x6f,0x3a,0x0c,0x52,0x50,0x47,0x3a,0x3a,0x4d,0x45,0x08,0x3a,0x0a,0x40,0x6e,0x61,0x6d,0x65,0x49,0x22,0x0c,0x66,0x61,0x6e,0x66,0x61,0x6c,0x65,0x06,0x3a,0x06,0x45,0x54,0x3a,0x0b,0x40,0x70,0x69,0x74,0x63,0x68,0x69,0x69,0x3a,0x0c,0x40,0x76,0x6f,0x6c,0x75,0x6d,0x65,0x69,0x69))
     ShowMessageFace("",0,0,2,4)
     ShowMessage("Nightingale joined the party!")
     Wait(60)
     EndEventProcessing()
     0()
    IfPlayerPicksChoice(1,null)
     ShowMessageFace("mob_nasu1_fc1",0,0,2,5)
     ShowMessage("\\n<Nightingale>You don't have to hold back ufufu.")
     0()
    404()
    0()
   EndIf()
   0()
  EndIf()
  RunCommonEvent(7101)
  0()
 PAGE   2
  // condition: party contains actor #554
  0()



EVENT   25
 PAGE   1
  If(1,1019,0,1,2)
   ShowMessageFace("mob_gakusya1_fc1",0,0,2,1)
   ShowMessage("\\n<Fizz>What is it? I'm busy writing a report right now, how about later?")
   EndEventProcessing()
   0()
  EndIf()
  If(1,810,0,2,1)
   If(0,1553,1)
    ShowMessageFace("mob_gakusya1_fc1",0,0,2,2)
    ShowMessage("\\n<Fizz>Can I join you as well? It feels like my research will advance that way.")
    ShowChoices(strings("Let her join","Decline for now"),0)
    IfPlayerPicksChoice(0,null)
     ShowMessageFace("mob_gakusya1_fc1",0,0,2,3)
     ShowMessage("\\n<Fizz>Please take care of me. I'll do my best.")
     PictureClear(5)
     205(0,bytes(0x04,0x08,0x6f,0x3a,0x13,0x52,0x50,0x47,0x3a,0x3a,0x4d,0x6f,0x76,0x65,0x52,0x6f,0x75,0x74,0x65,0x09,0x3a,0x0c,0x40,0x72,0x65,0x70,0x65,0x61,0x74,0x46,0x3a,0x0f,0x40,0x73,0x6b,0x69,0x70,0x70,0x61,0x62,0x6c,0x65,0x46,0x3a,0x0a,0x40,0x77,0x61,0x69,0x74,0x54,0x3a,0x0a,0x40,0x6c,0x69,0x73,0x74,0x5b,0x09,0x6f,0x3a,0x15,0x52,0x50,0x47,0x3a,0x3a,0x4d,0x6f,0x76,0x65,0x43,0x6f,0x6d,0x6d,0x61,0x6e,0x64,0x07,0x3a,0x0a,0x40,0x63,0x6f,0x64,0x65,0x69,0x2a,0x3a,0x10,0x40,0x70,0x61,0x72,0x61,0x6d,0x65,0x74,0x65,0x72,0x73,0x5b,0x00,0x6f,0x3b,0x0a,0x07,0x3b,0x0b,0x69,0x0f,0x3b,0x0c,0x5b,0x00,0x6f,0x3b,0x0a,0x07,0x3b,0x0b,0x69,0x2c,0x3b,0x0c,0x5b,0x00,0x6f,0x3b,0x0a,0x07,0x3b,0x0b,0x69,0x00,0x3b,0x0c,0x5b,0x00))
     355("add_actor_ex(553)")
     249(bytes(0x04,0x08,0x6f,0x3a,0x0c,0x52,0x50,0x47,0x3a,0x3a,0x4d,0x45,0x08,0x3a,0x0a,0x40,0x6e,0x61,0x6d,0x65,0x49,0x22,0x0c,0x66,0x61,0x6e,0x66,0x61,0x6c,0x65,0x06,0x3a,0x06,0x45,0x54,0x3a,0x0b,0x40,0x70,0x69,0x74,0x63,0x68,0x69,0x69,0x3a,0x0c,0x40,0x76,0x6f,0x6c,0x75,0x6d,0x65,0x69,0x69))
     ShowMessageFace("",0,0,2,4)
     ShowMessage("Fizz joined the party!")
     Wait(60)
     EndEventProcessing()
     0()
    IfPlayerPicksChoice(1,null)
     ShowMessageFace("mob_gakusya1_fc1",0,0,2,5)
     ShowMessage("\\n<Fizz>Is that so, someone like me will be just a burden.")
     0()
    404()
    0()
   EndIf()
   0()
  EndIf()
  RunCommonEvent(7091)
  0()
 PAGE   2
  // condition: party contains actor #553
  0()



EVENT   79
 PAGE   1
  ShowMessageFace("",0,0,2,1)
  ShowMessage("\\n<Scholar>A thousand years ago, there was a great war between Goddess of Creation and the First Monster Lord. Angels led by Ilias and army led by the Monster Lord battled fiercely.")
  ShowMessageFace("",0,0,2,2)
  ShowMessage("\\n<Scholar>By the end of the conflict, with the land in ruins, Ilias defeated the Monster Lord. Even now there are traces of the Great Monster War's destruction all over the world.")
  355("actor_label_jump")
  EndEventProcessing()
  DefineLabel("26")
  ShowMessageFace("iriasu_fc4",0,0,2,3)
  ShowMessage("\\n<Ilias>Justice always prevails. Luka, you too must overcome great evil.")
  ShowMessageFace("iriasu_fc4",2,0,2,4)
  ShowMessage("\\n<Ilias>...Or so I thought. I guess I'm not in a position to gloat about my victory yet since I'm in the same position as that vile creature.")
  EndEventProcessing()
  DefineLabel("99")
  ShowMessageFace("namazu_fc1",2,0,2,5)
  ShowMessage("\\n<Gigi>To leave traces on the terrain itself. What a fierce war.")
  EndEventProcessing()
  0()